Transcript, Gene and Gene-set network integration • txGeneNetwork
…
As there are genes which belong to more than one biological process, this is not an adequate process visualization, the best way would be plotting it as individual hulls, but we will get to that down the workflow.

Adding information on the nodes

For now in our example table we only added aesthetics to the edges, now we will add the transcript_type and the hull aesthetic. First you can extract the nodes table to then modify it using

as_tibble(example_tbl_graph %>% activate(nodes))

## # A tibble: 119 x 1
##    name                
##    <chr>               
##  1 Metabolism of Lipids
##  2 ACACA               
##  3 ACACB               
##  4 ACSL5               
##  5 AGPAT3              
##  6 ANKRD1              
##  7 ASAH1               
##  8 CYP2E1              
##  9 CYP4F3              
## 10 ESYT2               
## # … with 109 more rows
…
